[
  { "timestamp": "2021-08-27 09:40:28",
    "originURL": "https://www.reddit.com/r/Supernote/comments/pck339/my_first_template_for_coffee_tasting_journal_for/",
    "filename": [ "20210827094028_coffee_taste.png" ],
    "tags": [ "tasting" ],
    "owner": "u/linhkid",
    "title": "Coffee Tasting",
    "description": ""
  }
]