[
  { "timestamp": "2021-02-17 15:30:46",
    "originURL": "https://www.reddit.com/r/Supernote/comments/llx10x/professional_aviation_logbook_template/",
    "filename": [ "20210217153046_aviation.png" ],
    "tags": [ "log", "aviation" ],
    "owner": "u/hey-you-there-its-me",
    "title": "Professional Aviation Logbook",
    "description": ""
  }
]
