[
  { "timestamp": "2021-02-25 07:50:23",
    "originURL": "https://www.reddit.com/r/Supernote/comments/lriu02/8mm_cnt_template/goomawx",
    "filename": [ "20210225075023_cnt_8mm.png" ],
    "tags": [ "cnt", "a5x", "8mm" ],
    "owner": "u/malcsweb",
    "title": "Cornell Note Template (8mm) for A5X",
    "description": ""
  }
]