[
  { "timestamp": "2021-07-03 18:50:06",
    "filename": [ "20210703185006_tenkeyless.png" ],
    "tags": [ "keyboard" ],
    "owner": "u/kitlaan",
    "title": "Keyboard Layout (TKL)",
    "description": ""
  }
]
