[
  { "timestamp": "2021-06-06 20:37:47",
    "originURL": "https://www.reddit.com/r/RemarkableTablet/comments/ntv0ei/free_templates/",
    "filename": [ "20210606203747_char_main.png", "20210606203747_char_detail.png", "20210606203747_char_spells.png" ],
    "tags": [ "game" ],
    "owner": "u/CovertAg3nt",
    "title": "D&D Character Sheet",
    "description": ""
  },
  { "timestamp": "2021-06-06 20:37:47",
    "originURL": "https://www.reddit.com/r/RemarkableTablet/comments/ntv0ei/free_templates/",
    "filename": [ "20210606203747_atomic_habits_impl.png", "20210606203747_atomic_habits_stacking.png" ],
    "tags": [ "notes", "habit" ],
    "owner": "u/CovertAg3nt",
    "title": "Atomic Habits Pages",
    "description": ""
  }
]