[
  { "timestamp": "2022-04-13 11:55:38",
    "originURL": "https://www.reddit.com/r/Supernote/comments/u2olil/new_template_in_german/",
    "filename": [ "20220413115538_memo.png" ],
    "tags": [ "memo" ],
    "owner": "u/Supernoter",
    "title": "Memo (German)",
    "description": ""
  }
]
