[
  { "timestamp": "2022-06-05 17:02:00",
    "originURL": "https://www.reddit.com/r/Supernote/comments/v5hmbu/couldnt_find_a_weekly_todo_list_without_monday_to/",
    "filename": [ "20220605170200_weekly_todo.png" ],
    "tags": [ "planner", "weekly" ],
    "owner": "u/chujustingah",
    "title": "Weekly TODO",
    "description": ""
  }
]