[
  { "timestamp": "2022-04-04 14:17:59",
    "originURL": "https://www.reddit.com/r/Supernote/comments/tw34lv/simple_and_easy_to_use_png_template/",
    "filename": [ "20220404141759_book_review.png" ],
    "tags": [ "media" ],
    "owner": "?",
    "title": "Book Review",
    "description": ""
  }
]
