[
  { "timestamp": "2022-09-12 14:02:01",
    "originURL": "https://www.reddit.com/r/Supernote/comments/xcdn5f/another_free_template/",
    "filename": [ "20220912140201_skip_bo.png" ],
    "tags": [ "game" ],
    "owner": "u/Immediate_Flamingo25",
    "title": "Skip-Bo Scoring",
    "description": ""
  }
]