[
  { "timestamp": "2022-03-21 18:29:27",
    "originURL": "https://www.reddit.com/r/Supernote/comments/tjihqn/first_custom_template/",
    "filename": [ "20220321182927_notes.png" ],
    "tags": [ "notes", "daily" ],
    "owner": "u/crgalloway",
    "title": "Daily Note",
    "description": ""
  }
]
