[
  { "timestamp": "2022-06-04 16:50:01",
    "originURL": "https://www.reddit.com/r/Supernote/comments/v4suq6/new_templates_meetings_swot_public_speaking/",
    "filename": [ "20220604165001_meeting.png" ],
    "tags": [ "log", "meeting" ],
    "owner": "u/kenhensley",
    "title": "Meeting Notes",
    "description": ""
  },
  { "timestamp": "2022-06-04 16:50:01",
    "originURL": "https://www.reddit.com/r/Supernote/comments/v4suq6/new_templates_meetings_swot_public_speaking/",
    "filename": [ "20220604165001_focus.png" ],
    "tags": [ "planner", "daily" ],
    "owner": "u/kenhensley",
    "title": "Daily Focus",
    "description": ""
  },
  { "timestamp": "2022-06-04 16:50:01",
    "originURL": "https://www.reddit.com/r/Supernote/comments/v4suq6/new_templates_meetings_swot_public_speaking/",
    "filename": [ "20220604165001_swot.png" ],
    "tags": [ "matrix" ],
    "owner": "u/kenhensley",
    "title": "SWOT Analysis",
    "description": ""
  },
  { "timestamp": "2022-06-04 16:50:01",
    "originURL": "https://www.reddit.com/r/Supernote/comments/v4suq6/new_templates_meetings_swot_public_speaking/",
    "filename": [ "20220604165001_sermon.png" ],
    "tags": [ "notes" ],
    "owner": "u/kenhensley",
    "title": "Sermon Brainstorming",
    "description": ""
  },
  { "timestamp": "2022-06-04 16:50:01",
    "originURL": "https://www.reddit.com/r/Supernote/comments/v4suq6/new_templates_meetings_swot_public_speaking/",
    "filename": [ "20220604165001_presentation.png" ],
    "tags": [ "notes" ],
    "owner": "u/kenhensley",
    "title": "Presentation Brainstorming",
    "description": ""
  }
]