[
  { "timestamp": "2023-01-21 22:37:39",
    "originURL": "https://www.reddit.com/r/Supernote/comments/10i3rzh/2mm_scientific_isometric_grid/",
    "filename": [ "20230121223739_iso_2mm.png" ],
    "tags": [ "grid", "isometric", "a5x 2mm" ],
    "owner": "u/Twilight__Owl",
    "title": "Scientific Isometric Grid (2mm A5X)",
    "description": ""
  }
]