[
  { "timestamp": "2023-04-28 21:42:02",
    "originURL": "https://www.reddit.com/r/Supernote/comments/132ao8c/blueprint_custom_template_2mm%C2%B2_probably_the_best/",
    "filename": [ "20230428214202_bluegrid_4mm.png" ],
    "tags": [ "grid", "4mm" ],
    "owner": "u/Codex_Absurdum",
    "title": "Blueprint Grid 4mm",
    "description": ""
  }
]
